       fs delta   A D y(7) y(6) y(5) y(4) y(3) y(2) y(1) y(0) 
        0     0 000 1    0    0    0    0    0    0    0    0 
        0     1 000 1    0    0    0    0    0    0    0    1 
 50000000     0 001 1    0    0    0    0    0    0    0    1 
 50000000     1 001 1    0    0    0    0    0    0    1    0 
100000000     0 010 1    0    0    0    0    0    0    1    0 
100000000     1 010 1    0    0    0    0    0    1    0    0 
150000000     0 011 1    0    0    0    0    0    1    0    0 
150000000     1 011 1    0    0    0    0    1    0    0    0 
200000000     0 100 1    0    0    0    0    1    0    0    0 
200000000     1 100 1    0    0    0    1    0    0    0    0 
250000000     0 101 1    0    0    0    1    0    0    0    0 
250000000     1 101 1    0    0    1    0    0    0    0    0 
300000000     0 110 1    0    0    1    0    0    0    0    0 
300000000     1 110 1    0    1    0    0    0    0    0    0 
350000000     0 111 1    0    1    0    0    0    0    0    0 
350000000     1 111 1    1    0    0    0    0    0    0    0 
400000000     0 000 1    1    0    0    0    0    0    0    0 
400000000     1 000 1    0    0    0    0    0    0    0    1 
